<?xml version="1.0" encoding="ISO-8859-1" standalone="yes"?>
<gpx version="1.1" creator="NTU" xmlns="http://www.topografix.com/GPX/1/1" xmlns:xsd="http://www.w3.org/2001/XMLSchema" xmlns:xsi="http://www.w3.org/2001/XMLSchema-instance" xsi:schemaLocation="http://www.topografix.com/GPX/1/1 http://www.topografix.com/GPX/1/1/gpx.xsd">
    <rte>
        <name>RepeatedPointsNegative-N0724629</name>
        <rtept lat="-52.9581" lon="-1.18406">
            <name>K</name>
            <ele>-53.000000</ele>
        </rtept>
        <rtept lat="-52.9401" lon="-1.13932">
            <name>D</name>
            <ele>-53.000000</ele>
        </rtept>
        <rtept lat="-52.9581" lon="-1.16915">
            <name>L</name>
            <ele>-53.000000</ele>
        </rtept>
        <rtept lat="-52.9401" lon="-1.13932">
            <name>D</name>
            <ele>-53.000000</ele>
        </rtept>
        <rtept lat="-52.9401" lon="-1.13932">
            <name>D</name>
            <ele>-53.000000</ele>
        </rtept>
        <rtept lat="-52.9581" lon="-1.18406">
            <name>K</name>
            <ele>-53.000000</ele>
        </rtept>
    </rte>
</gpx>
